nuts3 = [{
"type": "FeatureCollection",
"features": [
{ "type": "Feature", "properties": { "description": "CZ020 – Středočeský", "lesnatost_bo": 30.820000 }, "geometry": { "type": "Polygon", "coordinates": [ [ [ 14.931974, 49.549430 ], [ 14.902818, 49.544310 ], [ 14.877700, 49.586953 ], [ 14.867330, 49.591778 ], [ 14.845211, 49.576213 ], [ 14.766348, 49.621141 ], [ 14.724159, 49.592553 ], [ 14.738044, 49.549114 ], [ 14.693889, 49.544365 ], [ 14.648065, 49.503197 ], [ 14.631694, 49.519353 ], [ 14.573556, 49.521709 ], [ 14.589378, 49.544241 ], [ 14.561437, 49.531087 ], [ 14.477406, 49.546165 ], [ 14.466959, 49.531597 ], [ 14.406001, 49.557886 ], [ 14.413597, 49.536902 ], [ 14.386836, 49.543010 ], [ 14.354787, 49.524154 ], [ 14.265876, 49.567856 ], [ 14.226713, 49.561913 ], [ 14.208354, 49.531850 ], [ 14.121943, 49.536965 ], [ 14.125580, 49.528112 ], [ 14.074209, 49.529538 ], [ 14.076273, 49.556520 ], [ 14.038970, 49.560166 ], [ 14.009803, 49.551377 ], [ 14.005275, 49.522706 ], [ 13.948152, 49.517395 ], [ 13.932067, 49.501435 ], [ 13.867641, 49.525766 ], [ 13.842017, 49.510798 ], [ 13.821399, 49.527402 ], [ 13.765756, 49.514037 ], [ 13.765126, 49.546322 ], [ 13.737298, 49.545676 ], [ 13.753570, 49.621122 ], [ 13.701375, 49.620946 ], [ 13.716640, 49.635304 ], [ 13.675924, 49.645430 ], [ 13.720109, 49.646193 ], [ 13.688052, 49.670975 ], [ 13.728058, 49.678801 ], [ 13.675959, 49.676912 ], [ 13.671618, 49.697356 ], [ 13.736365, 49.733140 ], [ 13.767271, 49.718673 ], [ 13.781819, 49.743284 ], [ 13.817011, 49.755473 ], [ 13.782172, 49.765836 ], [ 13.809030, 49.812502 ], [ 13.808366, 49.868026 ], [ 13.834310, 49.867751 ], [ 13.818303, 49.908964 ], [ 13.833211, 49.927778 ], [ 13.743103, 49.940613 ], [ 13.748153, 49.966117 ], [ 13.699381, 49.962033 ], [ 13.656551, 50.001857 ], [ 13.568754, 49.994556 ], [ 13.501274, 50.022152 ], [ 13.537495, 50.028756 ], [ 13.520608, 50.040656 ], [ 13.399743, 50.032044 ], [ 13.413861, 50.062340 ], [ 13.429938, 50.061061 ], [ 13.406747, 50.089803 ], [ 13.425469, 50.109231 ], [ 13.462974, 50.105605 ], [ 13.470713, 50.132539 ], [ 13.492720, 50.128079 ], [ 13.488265, 50.166163 ], [ 13.535659, 50.189115 ], [ 13.607987, 50.192006 ], [ 13.669766, 50.238386 ], [ 13.671233, 50.222716 ], [ 13.751497, 50.223788 ], [ 13.812423, 50.263645 ], [ 13.839580, 50.240194 ], [ 13.863379, 50.243853 ], [ 13.877990, 50.270289 ], [ 13.940467, 50.280192 ], [ 13.952392, 50.307212 ], [ 13.991587, 50.303762 ], [ 13.981630, 50.333984 ], [ 14.007757, 50.346389 ], [ 14.143089, 50.330747 ], [ 14.185969, 50.345147 ], [ 14.250675, 50.328435 ], [ 14.274566, 50.354796 ], [ 14.367204, 50.352105 ], [ 14.379721, 50.395157 ], [ 14.359897, 50.429934 ], [ 14.378208, 50.436235 ], [ 14.416397, 50.420723 ], [ 14.423395, 50.453501 ], [ 14.473286, 50.449294 ], [ 14.454937, 50.496574 ], [ 14.486523, 50.505059 ], [ 14.501120, 50.492021 ], [ 14.510402, 50.509686 ], [ 14.547236, 50.495904 ], [ 14.578592, 50.511093 ], [ 14.589873, 50.473903 ], [ 14.632602, 50.487333 ], [ 14.692421, 50.480161 ], [ 14.725607, 50.520052 ], [ 14.754707, 50.519500 ], [ 14.750542, 50.556887 ], [ 14.826850, 50.538413 ], [ 14.859438, 50.556376 ], [ 14.847204, 50.572061 ], [ 14.908752, 50.586525 ], [ 14.895383, 50.601813 ], [ 14.917458, 50.606874 ], [ 14.912123, 50.619013 ], [ 14.957947, 50.593801 ], [ 15.004772, 50.604043 ], [ 15.039526, 50.565515 ], [ 15.064484, 50.571059 ], [ 15.097743, 50.534621 ], [ 15.147025, 50.522733 ], [ 15.113571, 50.503441 ], [ 15.144837, 50.475107 ], [ 15.129678, 50.450581 ], [ 15.162299, 50.427299 ], [ 15.144202, 50.387639 ], [ 15.104150, 50.376101 ], [ 15.131824, 50.363224 ], [ 15.129672, 50.345897 ], [ 15.188790, 50.339941 ], [ 15.181039, 50.328296 ], [ 15.216609, 50.319865 ], [ 15.206810, 50.296849 ], [ 15.228678, 50.287943 ], [ 15.264901, 50.294304 ], [ 15.306915, 50.281264 ], [ 15.350616, 50.300233 ], [ 15.378166, 50.284721 ], [ 15.370744, 50.226927 ], [ 15.402581, 50.207606 ], [ 15.348711, 50.145248 ], [ 15.415468, 50.140518 ], [ 15.448075, 50.124603 ], [ 15.437698, 50.109873 ], [ 15.398870, 50.095382 ], [ 15.428067, 50.088102 ], [ 15.404345, 50.086103 ], [ 15.412375, 50.063100 ], [ 15.375339, 50.055797 ], [ 15.402661, 50.046595 ], [ 15.362878, 50.041142 ], [ 15.424704, 50.009583 ], [ 15.460188, 50.010325 ], [ 15.459401, 49.997506 ], [ 15.468724, 50.007169 ], [ 15.474089, 49.994179 ], [ 15.460935, 49.987283 ], [ 15.531592, 49.961736 ], [ 15.516099, 49.941163 ], [ 15.535517, 49.927458 ], [ 15.497722, 49.897952 ], [ 15.497158, 49.861226 ], [ 15.416435, 49.827759 ], [ 15.439027, 49.804330 ], [ 15.425146, 49.792599 ], [ 15.382330, 49.799967 ], [ 15.346422, 49.769420 ], [ 15.299585, 49.768501 ], [ 15.265101, 49.751186 ], [ 15.254017, 49.763173 ], [ 15.224991, 49.757044 ], [ 15.217156, 49.725994 ], [ 15.177557, 49.696531 ], [ 15.184831, 49.667792 ], [ 15.234657, 49.665347 ], [ 15.249656, 49.643536 ], [ 15.230509, 49.615079 ], [ 15.171043, 49.614161 ], [ 15.164978, 49.589038 ], [ 15.117548, 49.610423 ], [ 15.055999, 49.594164 ], [ 14.981739, 49.606021 ], [ 14.969036, 49.596010 ], [ 14.993127, 49.581892 ], [ 14.940391, 49.580026 ], [ 14.931974, 49.549430 ] ], [ [ 14.224517, 50.102993 ], [ 14.249912, 50.103549 ], [ 14.289446, 50.077216 ], [ 14.248156, 50.058389 ], [ 14.315940, 50.023674 ], [ 14.294905, 50.002289 ], [ 14.342821, 49.990707 ], [ 14.325504, 49.957287 ], [ 14.395626, 49.941977 ], [ 14.400713, 49.970746 ], [ 14.462306, 49.970846 ], [ 14.527540, 50.010912 ], [ 14.582461, 50.016436 ], [ 14.640218, 49.994512 ], [ 14.669605, 50.018911 ], [ 14.640262, 50.056965 ], [ 14.700062, 50.072198 ], [ 14.706858, 50.087088 ], [ 14.657508, 50.106571 ], [ 14.659189, 50.122674 ], [ 14.600591, 50.129594 ], [ 14.598672, 50.154226 ], [ 14.563306, 50.150242 ], [ 14.526992, 50.177496 ], [ 14.394977, 50.141505 ], [ 14.365780, 50.148109 ], [ 14.360858, 50.116096 ], [ 14.320681, 50.115320 ], [ 14.302515, 50.130155 ], [ 14.224517, 50.102993 ] ] ] } }
,
{ "type": "Feature", "properties": { "description": "CZ031 – Jihočeský", "lesnatost_bo": 41.310000 }, "geometry": { "type": "Polygon", "coordinates": [ [ [ 15.586706, 48.947087 ], [ 15.542431, 48.907789 ], [ 15.468497, 48.951873 ], [ 15.424761, 48.951663 ], [ 15.366982, 48.981941 ], [ 15.305701, 48.977977 ], [ 15.278883, 48.994718 ], [ 15.261624, 48.953708 ], [ 15.224453, 48.960205 ], [ 15.160250, 48.941753 ], [ 15.156281, 48.993353 ], [ 14.995928, 49.015153 ], [ 14.976202, 48.971074 ], [ 14.984525, 48.842458 ], [ 14.953190, 48.795166 ], [ 14.975652, 48.768964 ], [ 14.955787, 48.758154 ], [ 14.881291, 48.780179 ], [ 14.808658, 48.778873 ], [ 14.808128, 48.733954 ], [ 14.726961, 48.687143 ], [ 14.721126, 48.602454 ], [ 14.701517, 48.582768 ], [ 14.663448, 48.582035 ], [ 14.610465, 48.628183 ], [ 14.562047, 48.603408 ], [ 14.503281, 48.617447 ], [ 14.469864, 48.648575 ], [ 14.443753, 48.643511 ], [ 14.456040, 48.625221 ], [ 14.431403, 48.589213 ], [ 14.386233, 48.592756 ], [ 14.388071, 48.571964 ], [ 14.357663, 48.574731 ], [ 14.333224, 48.551893 ], [ 14.271537, 48.581459 ], [ 14.066955, 48.594949 ], [ 14.048128, 48.627457 ], [ 14.010553, 48.639745 ], [ 14.053518, 48.653016 ], [ 14.059463, 48.673914 ], [ 14.034154, 48.677075 ], [ 14.003277, 48.708674 ], [ 13.955803, 48.714544 ], [ 13.876115, 48.766698 ], [ 13.813180, 48.774091 ], [ 13.815239, 48.797182 ], [ 13.792952, 48.830188 ], [ 13.764440, 48.834566 ], [ 13.737948, 48.886105 ], [ 13.671445, 48.880236 ], [ 13.628601, 48.949306 ], [ 13.610249, 48.938707 ], [ 13.583918, 48.969304 ], [ 13.550914, 48.967730 ], [ 13.543215, 49.017973 ], [ 13.607070, 49.064597 ], [ 13.579413, 49.104379 ], [ 13.598148, 49.108850 ], [ 13.588782, 49.146547 ], [ 13.629760, 49.135857 ], [ 13.659155, 49.160627 ], [ 13.694079, 49.163884 ], [ 13.691694, 49.187374 ], [ 13.719933, 49.194911 ], [ 13.688866, 49.228307 ], [ 13.733476, 49.256737 ], [ 13.707908, 49.257966 ], [ 13.698442, 49.278766 ], [ 13.730908, 49.280250 ], [ 13.722213, 49.310613 ], [ 13.770115, 49.323491 ], [ 13.790695, 49.363778 ], [ 13.758615, 49.399229 ], [ 13.763322, 49.422362 ], [ 13.790657, 49.435095 ], [ 13.764172, 49.452732 ], [ 13.768980, 49.482848 ], [ 13.747848, 49.486831 ], [ 13.765756, 49.514037 ], [ 13.821399, 49.527402 ], [ 13.842017, 49.510798 ], [ 13.867641, 49.525766 ], [ 13.932067, 49.501435 ], [ 13.948152, 49.517395 ], [ 14.005275, 49.522706 ], [ 14.009803, 49.551377 ], [ 14.038970, 49.560166 ], [ 14.076273, 49.556520 ], [ 14.074209, 49.529538 ], [ 14.125580, 49.528112 ], [ 14.121943, 49.536965 ], [ 14.208354, 49.531850 ], [ 14.226713, 49.561913 ], [ 14.265876, 49.567856 ], [ 14.354787, 49.524154 ], [ 14.386836, 49.543010 ], [ 14.413597, 49.536902 ], [ 14.406001, 49.557886 ], [ 14.466959, 49.531597 ], [ 14.477406, 49.546165 ], [ 14.561437, 49.531087 ], [ 14.589378, 49.544241 ], [ 14.573556, 49.521709 ], [ 14.631694, 49.519353 ], [ 14.648065, 49.503197 ], [ 14.693889, 49.544365 ], [ 14.738044, 49.549114 ], [ 14.724159, 49.592553 ], [ 14.766348, 49.621141 ], [ 14.845211, 49.576213 ], [ 14.867330, 49.591778 ], [ 14.877700, 49.586953 ], [ 14.902818, 49.544310 ], [ 14.931974, 49.549430 ], [ 14.943728, 49.524377 ], [ 14.901832, 49.516489 ], [ 14.933509, 49.484142 ], [ 14.888256, 49.375909 ], [ 14.932999, 49.356371 ], [ 14.904200, 49.333407 ], [ 14.924116, 49.310507 ], [ 14.978935, 49.277275 ], [ 15.029921, 49.296666 ], [ 15.062180, 49.272288 ], [ 15.103696, 49.270285 ], [ 15.100773, 49.249109 ], [ 15.075100, 49.251967 ], [ 15.099131, 49.240858 ], [ 15.123649, 49.247930 ], [ 15.139292, 49.221212 ], [ 15.166667, 49.216065 ], [ 15.191505, 49.236512 ], [ 15.257549, 49.217662 ], [ 15.253201, 49.206518 ], [ 15.341527, 49.218407 ], [ 15.337193, 49.166894 ], [ 15.423935, 49.117701 ], [ 15.441283, 49.133122 ], [ 15.468401, 49.119668 ], [ 15.535873, 49.124734 ], [ 15.536737, 49.135545 ], [ 15.567482, 49.128954 ], [ 15.570098, 49.116631 ], [ 15.549715, 49.114816 ], [ 15.590237, 49.104490 ], [ 15.597799, 49.076532 ], [ 15.553253, 49.077159 ], [ 15.533986, 49.025636 ], [ 15.487296, 48.997033 ], [ 15.528150, 48.995088 ], [ 15.523576, 48.976036 ], [ 15.580312, 48.965798 ], [ 15.586706, 48.947087 ] ] ] } }
,
{ "type": "Feature", "properties": { "description": "CZ032 – Plzeňský", "lesnatost_bo": 42.920000 }, "geometry": { "type": "Polygon", "coordinates": [ [ [ 13.765756, 49.514037 ], [ 13.747848, 49.486831 ], [ 13.768980, 49.482848 ], [ 13.764172, 49.452732 ], [ 13.790657, 49.435095 ], [ 13.763322, 49.422362 ], [ 13.758615, 49.399229 ], [ 13.790695, 49.363778 ], [ 13.770115, 49.323491 ], [ 13.722213, 49.310613 ], [ 13.730908, 49.280250 ], [ 13.698442, 49.278766 ], [ 13.707908, 49.257966 ], [ 13.733476, 49.256737 ], [ 13.688866, 49.228307 ], [ 13.719933, 49.194911 ], [ 13.691694, 49.187374 ], [ 13.694079, 49.163884 ], [ 13.659155, 49.160627 ], [ 13.629760, 49.135857 ], [ 13.588782, 49.146547 ], [ 13.598148, 49.108850 ], [ 13.579413, 49.104379 ], [ 13.607070, 49.064597 ], [ 13.543215, 49.017973 ], [ 13.550914, 48.967730 ], [ 13.507085, 48.969212 ], [ 13.495784, 48.941588 ], [ 13.402738, 48.987324 ], [ 13.396447, 49.051621 ], [ 13.289204, 49.118738 ], [ 13.236081, 49.113820 ], [ 13.182799, 49.134590 ], [ 13.170922, 49.173729 ], [ 13.109913, 49.203236 ], [ 13.080843, 49.247516 ], [ 13.034012, 49.264038 ], [ 13.029144, 49.304437 ], [ 12.972661, 49.333973 ], [ 12.888878, 49.351022 ], [ 12.886880, 49.332461 ], [ 12.785815, 49.345577 ], [ 12.757703, 49.394916 ], [ 12.708740, 49.424875 ], [ 12.655589, 49.434915 ], [ 12.633688, 49.476269 ], [ 12.644238, 49.523082 ], [ 12.588584, 49.538594 ], [ 12.560789, 49.619726 ], [ 12.528151, 49.618220 ], [ 12.522037, 49.686562 ], [ 12.442503, 49.703940 ], [ 12.400609, 49.753925 ], [ 12.472706, 49.786229 ], [ 12.473115, 49.833790 ], [ 12.498037, 49.837646 ], [ 12.550763, 49.905405 ], [ 12.594830, 49.892919 ], [ 12.648002, 49.916399 ], [ 12.676003, 49.890498 ], [ 12.673567, 49.908218 ], [ 12.712797, 49.912378 ], [ 12.702875, 49.925979 ], [ 12.774924, 49.928335 ], [ 12.793135, 49.941056 ], [ 12.928079, 49.920913 ], [ 12.966687, 49.943725 ], [ 12.959507, 49.975291 ], [ 13.000439, 49.977992 ], [ 13.096791, 50.035397 ], [ 13.231835, 49.996059 ], [ 13.230791, 50.049290 ], [ 13.292843, 50.060328 ], [ 13.281667, 50.098349 ], [ 13.301827, 50.099450 ], [ 13.324731, 50.103472 ], [ 13.333995, 50.086615 ], [ 13.343880, 50.100398 ], [ 13.357094, 50.104302 ], [ 13.372201, 50.077075 ], [ 13.406747, 50.089803 ], [ 13.429938, 50.061061 ], [ 13.413861, 50.062340 ], [ 13.399743, 50.032044 ], [ 13.520608, 50.040656 ], [ 13.537495, 50.028756 ], [ 13.501274, 50.022152 ], [ 13.568754, 49.994556 ], [ 13.656551, 50.001857 ], [ 13.699381, 49.962033 ], [ 13.748153, 49.966117 ], [ 13.743103, 49.940613 ], [ 13.833211, 49.927778 ], [ 13.818303, 49.908964 ], [ 13.834310, 49.867751 ], [ 13.808366, 49.868026 ], [ 13.809030, 49.812502 ], [ 13.782172, 49.765836 ], [ 13.817011, 49.755473 ], [ 13.781819, 49.743284 ], [ 13.767271, 49.718673 ], [ 13.736365, 49.733140 ], [ 13.671618, 49.697356 ], [ 13.675959, 49.676912 ], [ 13.728058, 49.678801 ], [ 13.688052, 49.670975 ], [ 13.720109, 49.646193 ], [ 13.675924, 49.645430 ], [ 13.716640, 49.635304 ], [ 13.701375, 49.620946 ], [ 13.753570, 49.621122 ], [ 13.737298, 49.545676 ], [ 13.765126, 49.546322 ], [ 13.765756, 49.514037 ] ] ] } }
,
{ "type": "Feature", "properties": { "description": "CZ041 – Karlovarský", "lesnatost_bo": 49.430000 }, "geometry": { "type": "Polygon", "coordinates": [ [ [ 13.301827, 50.099450 ], [ 13.281667, 50.098349 ], [ 13.292843, 50.060328 ], [ 13.230791, 50.049290 ], [ 13.231835, 49.996059 ], [ 13.096791, 50.035397 ], [ 13.000439, 49.977992 ], [ 12.959507, 49.975291 ], [ 12.966687, 49.943725 ], [ 12.928079, 49.920913 ], [ 12.793135, 49.941056 ], [ 12.774924, 49.928335 ], [ 12.702875, 49.925979 ], [ 12.712797, 49.912378 ], [ 12.673567, 49.908218 ], [ 12.676003, 49.890498 ], [ 12.648002, 49.916399 ], [ 12.594830, 49.892919 ], [ 12.550763, 49.905405 ], [ 12.542741, 49.923644 ], [ 12.474995, 49.938641 ], [ 12.490026, 49.981721 ], [ 12.460804, 49.994994 ], [ 12.431546, 49.984512 ], [ 12.431717, 50.002630 ], [ 12.367562, 50.017547 ], [ 12.339726, 50.039452 ], [ 12.325943, 50.032955 ], [ 12.317351, 50.053494 ], [ 12.261696, 50.058246 ], [ 12.275484, 50.076599 ], [ 12.200879, 50.108822 ], [ 12.195238, 50.143291 ], [ 12.216048, 50.168330 ], [ 12.151158, 50.235841 ], [ 12.092510, 50.249738 ], [ 12.140145, 50.277962 ], [ 12.101639, 50.319121 ], [ 12.184666, 50.322325 ], [ 12.201451, 50.272965 ], [ 12.253925, 50.271101 ], [ 12.266022, 50.250304 ], [ 12.246999, 50.257370 ], [ 12.239392, 50.246386 ], [ 12.293731, 50.221361 ], [ 12.274732, 50.196674 ], [ 12.289440, 50.177016 ], [ 12.332196, 50.171448 ], [ 12.331374, 50.242573 ], [ 12.359309, 50.242251 ], [ 12.352669, 50.262778 ], [ 12.399542, 50.293584 ], [ 12.398469, 50.321555 ], [ 12.431021, 50.322840 ], [ 12.469472, 50.354967 ], [ 12.489551, 50.349994 ], [ 12.512105, 50.397390 ], [ 12.673355, 50.416912 ], [ 12.707210, 50.397237 ], [ 12.734604, 50.432483 ], [ 12.794881, 50.449571 ], [ 12.810601, 50.430959 ], [ 12.819179, 50.460401 ], [ 12.948273, 50.404818 ], [ 12.974471, 50.389404 ], [ 13.021541, 50.395829 ], [ 13.097245, 50.382571 ], [ 13.093212, 50.354838 ], [ 13.116403, 50.348098 ], [ 13.133626, 50.360084 ], [ 13.222197, 50.352636 ], [ 13.237528, 50.325490 ], [ 13.214464, 50.273866 ], [ 13.233417, 50.272779 ], [ 13.238053, 50.248754 ], [ 13.222235, 50.242429 ], [ 13.255566, 50.229171 ], [ 13.239337, 50.212228 ], [ 13.287318, 50.168220 ], [ 13.264976, 50.157480 ], [ 13.283918, 50.136618 ], [ 13.250815, 50.146380 ], [ 13.228053, 50.134161 ], [ 13.273709, 50.128366 ], [ 13.301827, 50.099450 ] ] ] } }
,
{ "type": "Feature", "properties": { "description": "CZ042 – Ústecký", "lesnatost_bo": 34.320000 }, "geometry": { "type": "Polygon", "coordinates": [ [ [ 13.301827, 50.099450 ], [ 13.273709, 50.128366 ], [ 13.228053, 50.134161 ], [ 13.250815, 50.146380 ], [ 13.283918, 50.136618 ], [ 13.264976, 50.157480 ], [ 13.287318, 50.168220 ], [ 13.239337, 50.212228 ], [ 13.255566, 50.229171 ], [ 13.222235, 50.242429 ], [ 13.238053, 50.248754 ], [ 13.233417, 50.272779 ], [ 13.214464, 50.273866 ], [ 13.237528, 50.325490 ], [ 13.222197, 50.352636 ], [ 13.133626, 50.360084 ], [ 13.116403, 50.348098 ], [ 13.093212, 50.354838 ], [ 13.097245, 50.382571 ], [ 13.021541, 50.395829 ], [ 12.974471, 50.389404 ], [ 12.948273, 50.404818 ], [ 13.020015, 50.446697 ], [ 13.031792, 50.509871 ], [ 13.085726, 50.500424 ], [ 13.132692, 50.518759 ], [ 13.136863, 50.506500 ], [ 13.195389, 50.503344 ], [ 13.248456, 50.592176 ], [ 13.278811, 50.593069 ], [ 13.291194, 50.575030 ], [ 13.323254, 50.581190 ], [ 13.324892, 50.608545 ], [ 13.377400, 50.627351 ], [ 13.371156, 50.650912 ], [ 13.464959, 50.601876 ], [ 13.524381, 50.639081 ], [ 13.512891, 50.653864 ], [ 13.544479, 50.677643 ], [ 13.525349, 50.704482 ], [ 13.552026, 50.713835 ], [ 13.602843, 50.710246 ], [ 13.664782, 50.732176 ], [ 13.706820, 50.716778 ], [ 13.758417, 50.735916 ], [ 13.855050, 50.727040 ], [ 13.862105, 50.742885 ], [ 13.898908, 50.745222 ], [ 13.900894, 50.793466 ], [ 13.939100, 50.790014 ], [ 13.990438, 50.819914 ], [ 14.030011, 50.804340 ], [ 14.078576, 50.812563 ], [ 14.223617, 50.859165 ], [ 14.233484, 50.887677 ], [ 14.267551, 50.895390 ], [ 14.304868, 50.884003 ], [ 14.388122, 50.899273 ], [ 14.397090, 50.936414 ], [ 14.311563, 50.954086 ], [ 14.323604, 50.985465 ], [ 14.285822, 50.976997 ], [ 14.258808, 50.987612 ], [ 14.286500, 51.027564 ], [ 14.273983, 51.039875 ], [ 14.301841, 51.055076 ], [ 14.382811, 51.038609 ], [ 14.408694, 51.018856 ], [ 14.453957, 51.036015 ], [ 14.492842, 51.023483 ], [ 14.500292, 51.046620 ], [ 14.498723, 51.022161 ], [ 14.534878, 51.003813 ], [ 14.564676, 51.010237 ], [ 14.600772, 50.979483 ], [ 14.564479, 50.918643 ], [ 14.652400, 50.925983 ], [ 14.619031, 50.857828 ], [ 14.605144, 50.841599 ], [ 14.567425, 50.838212 ], [ 14.561386, 50.800761 ], [ 14.541065, 50.794397 ], [ 14.483835, 50.816086 ], [ 14.443021, 50.811255 ], [ 14.458290, 50.778586 ], [ 14.427695, 50.766792 ], [ 14.431272, 50.736452 ], [ 14.376319, 50.720903 ], [ 14.379061, 50.690906 ], [ 14.342941, 50.667465 ], [ 14.439896, 50.530143 ], [ 14.470431, 50.526742 ], [ 14.486523, 50.505059 ], [ 14.454937, 50.496574 ], [ 14.473286, 50.449294 ], [ 14.423395, 50.453501 ], [ 14.416397, 50.420723 ], [ 14.378208, 50.436235 ], [ 14.359897, 50.429934 ], [ 14.379721, 50.395157 ], [ 14.367204, 50.352105 ], [ 14.274566, 50.354796 ], [ 14.250675, 50.328435 ], [ 14.185969, 50.345147 ], [ 14.143089, 50.330747 ], [ 14.007757, 50.346389 ], [ 13.981630, 50.333984 ], [ 13.991587, 50.303762 ], [ 13.952392, 50.307212 ], [ 13.940467, 50.280192 ], [ 13.877990, 50.270289 ], [ 13.863379, 50.243853 ], [ 13.839580, 50.240194 ], [ 13.812423, 50.263645 ], [ 13.751497, 50.223788 ], [ 13.671233, 50.222716 ], [ 13.669766, 50.238386 ], [ 13.607987, 50.192006 ], [ 13.535659, 50.189115 ], [ 13.488265, 50.166163 ], [ 13.492720, 50.128079 ], [ 13.470713, 50.132539 ], [ 13.462974, 50.105605 ], [ 13.425469, 50.109231 ], [ 13.406747, 50.089803 ], [ 13.372201, 50.077075 ], [ 13.357094, 50.104302 ], [ 13.343880, 50.100398 ], [ 13.333995, 50.086615 ], [ 13.324731, 50.103472 ], [ 13.301827, 50.099450 ] ] ] } }
,
{ "type": "Feature", "properties": { "description": "CZ051 – Liberecký", "lesnatost_bo": 47.770000 }, "geometry": { "type": "Polygon", "coordinates": [ [ [ 14.619031, 50.857828 ], [ 14.708717, 50.840846 ], [ 14.722457, 50.822130 ], [ 14.793008, 50.820026 ], [ 14.829632, 50.872800 ], [ 15.002043, 50.868839 ], [ 14.989573, 50.921701 ], [ 15.021835, 50.967131 ], [ 15.006043, 50.986619 ], [ 14.989056, 50.978092 ], [ 14.968368, 50.990073 ], [ 14.985544, 51.010902 ], [ 15.024320, 51.023276 ], [ 15.055785, 51.012035 ], [ 15.061126, 51.022955 ], [ 15.129125, 50.990185 ], [ 15.171973, 51.020086 ], [ 15.179976, 50.983072 ], [ 15.236680, 50.998723 ], [ 15.248574, 50.979728 ], [ 15.274198, 50.979600 ], [ 15.292364, 50.952691 ], [ 15.267969, 50.932551 ], [ 15.277179, 50.891074 ], [ 15.367456, 50.838078 ], [ 15.373852, 50.778144 ], [ 15.394243, 50.776597 ], [ 15.438875, 50.809112 ], [ 15.535368, 50.779424 ], [ 15.573765, 50.735678 ], [ 15.561771, 50.682187 ], [ 15.583927, 50.652631 ], [ 15.565327, 50.637290 ], [ 15.602190, 50.614403 ], [ 15.571239, 50.581225 ], [ 15.632300, 50.522776 ], [ 15.583228, 50.513556 ], [ 15.562835, 50.526793 ], [ 15.536505, 50.513196 ], [ 15.477950, 50.547031 ], [ 15.479750, 50.532829 ], [ 15.436694, 50.521666 ], [ 15.453937, 50.501209 ], [ 15.441762, 50.487250 ], [ 15.401449, 50.479948 ], [ 15.379573, 50.508639 ], [ 15.367816, 50.494814 ], [ 15.265898, 50.525628 ], [ 15.223283, 50.494260 ], [ 15.147025, 50.522733 ], [ 15.097743, 50.534621 ], [ 15.064484, 50.571059 ], [ 15.039526, 50.565515 ], [ 15.004772, 50.604043 ], [ 14.957947, 50.593801 ], [ 14.912123, 50.619013 ], [ 14.917458, 50.606874 ], [ 14.895383, 50.601813 ], [ 14.908752, 50.586525 ], [ 14.847204, 50.572061 ], [ 14.859438, 50.556376 ], [ 14.826850, 50.538413 ], [ 14.750542, 50.556887 ], [ 14.754707, 50.519500 ], [ 14.725607, 50.520052 ], [ 14.692421, 50.480161 ], [ 14.632602, 50.487333 ], [ 14.589873, 50.473903 ], [ 14.578592, 50.511093 ], [ 14.547236, 50.495904 ], [ 14.510402, 50.509686 ], [ 14.501120, 50.492021 ], [ 14.486523, 50.505059 ], [ 14.470431, 50.526742 ], [ 14.439896, 50.530143 ], [ 14.342941, 50.667465 ], [ 14.379061, 50.690906 ], [ 14.376319, 50.720903 ], [ 14.431272, 50.736452 ], [ 14.427695, 50.766792 ], [ 14.458290, 50.778586 ], [ 14.443021, 50.811255 ], [ 14.483835, 50.816086 ], [ 14.541065, 50.794397 ], [ 14.561386, 50.800761 ], [ 14.567425, 50.838212 ], [ 14.605144, 50.841599 ], [ 14.619031, 50.857828 ] ] ] } }
,
{ "type": "Feature", "properties": { "description": "CZ052 – Královéhradecký", "lesnatost_bo": 35.070000 }, "geometry": { "type": "Polygon", "coordinates": [ [ [ 15.437698, 50.109873 ], [ 15.448075, 50.124603 ], [ 15.415468, 50.140518 ], [ 15.348711, 50.145248 ], [ 15.402581, 50.207606 ], [ 15.370744, 50.226927 ], [ 15.378166, 50.284721 ], [ 15.350616, 50.300233 ], [ 15.306915, 50.281264 ], [ 15.264901, 50.294304 ], [ 15.228678, 50.287943 ], [ 15.206810, 50.296849 ], [ 15.216609, 50.319865 ], [ 15.181039, 50.328296 ], [ 15.188790, 50.339941 ], [ 15.129672, 50.345897 ], [ 15.131824, 50.363224 ], [ 15.104150, 50.376101 ], [ 15.144202, 50.387639 ], [ 15.162299, 50.427299 ], [ 15.129678, 50.450581 ], [ 15.144837, 50.475107 ], [ 15.113571, 50.503441 ], [ 15.147025, 50.522733 ], [ 15.223283, 50.494260 ], [ 15.265898, 50.525628 ], [ 15.367816, 50.494814 ], [ 15.379573, 50.508639 ], [ 15.401449, 50.479948 ], [ 15.441762, 50.487250 ], [ 15.453937, 50.501209 ], [ 15.436694, 50.521666 ], [ 15.479750, 50.532829 ], [ 15.477950, 50.547031 ], [ 15.536505, 50.513196 ], [ 15.562835, 50.526793 ], [ 15.583228, 50.513556 ], [ 15.632300, 50.522776 ], [ 15.571239, 50.581225 ], [ 15.602190, 50.614403 ], [ 15.565327, 50.637290 ], [ 15.583927, 50.652631 ], [ 15.561771, 50.682187 ], [ 15.573765, 50.735678 ], [ 15.535368, 50.779424 ], [ 15.601872, 50.776865 ], [ 15.705812, 50.737303 ], [ 15.816302, 50.755364 ], [ 15.861067, 50.674492 ], [ 15.961338, 50.691892 ], [ 15.991010, 50.683452 ], [ 16.021868, 50.630212 ], [ 15.986540, 50.613522 ], [ 16.024932, 50.598661 ], [ 16.103784, 50.663398 ], [ 16.170472, 50.645312 ], [ 16.184272, 50.627239 ], [ 16.217460, 50.633379 ], [ 16.234920, 50.671602 ], [ 16.343187, 50.661538 ], [ 16.445007, 50.579597 ], [ 16.404745, 50.569300 ], [ 16.411030, 50.547927 ], [ 16.387491, 50.542012 ], [ 16.401878, 50.529916 ], [ 16.360450, 50.501254 ], [ 16.311623, 50.506163 ], [ 16.294190, 50.479225 ], [ 16.258799, 50.480207 ], [ 16.220467, 50.457919 ], [ 16.231974, 50.443509 ], [ 16.213049, 50.451737 ], [ 16.195800, 50.432165 ], [ 16.214557, 50.409137 ], [ 16.253010, 50.405675 ], [ 16.278718, 50.367476 ], [ 16.304770, 50.382626 ], [ 16.360746, 50.379579 ], [ 16.383312, 50.328844 ], [ 16.431381, 50.324729 ], [ 16.557372, 50.220476 ], [ 16.580151, 50.142444 ], [ 16.481199, 50.164597 ], [ 16.472305, 50.136914 ], [ 16.340556, 50.092053 ], [ 16.357470, 50.077590 ], [ 16.312356, 50.060884 ], [ 16.332658, 50.040208 ], [ 16.280694, 50.051483 ], [ 16.247772, 50.042654 ], [ 16.242346, 50.055693 ], [ 16.195229, 50.038923 ], [ 16.111813, 50.084645 ], [ 16.075143, 50.086566 ], [ 16.063480, 50.112826 ], [ 16.009685, 50.112753 ], [ 15.992293, 50.157413 ], [ 15.917121, 50.170733 ], [ 15.837359, 50.131935 ], [ 15.804736, 50.140283 ], [ 15.804395, 50.168086 ], [ 15.776287, 50.175704 ], [ 15.740471, 50.161145 ], [ 15.727024, 50.133842 ], [ 15.705521, 50.139289 ], [ 15.689779, 50.125754 ], [ 15.648522, 50.140515 ], [ 15.586469, 50.133397 ], [ 15.570072, 50.150444 ], [ 15.469506, 50.099632 ], [ 15.437698, 50.109873 ] ] ] } }
,
{ "type": "Feature", "properties": { "description": "CZ053 – Pardubický", "lesnatost_bo": 32.330000 }, "geometry": { "type": "Polygon", "coordinates": [ [ [ 16.804102, 49.598837 ], [ 16.696566, 49.626385 ], [ 16.651074, 49.618740 ], [ 16.621863, 49.633277 ], [ 16.603647, 49.621346 ], [ 16.555474, 49.630860 ], [ 16.540754, 49.590148 ], [ 16.487286, 49.599996 ], [ 16.446129, 49.587309 ], [ 16.435772, 49.598748 ], [ 16.406407, 49.572211 ], [ 16.392076, 49.580151 ], [ 16.348175, 49.613173 ], [ 16.287170, 49.619938 ], [ 16.241559, 49.660376 ], [ 16.139815, 49.691331 ], [ 16.102264, 49.683639 ], [ 16.075038, 49.711911 ], [ 16.016168, 49.719076 ], [ 16.009715, 49.738022 ], [ 15.953494, 49.702472 ], [ 15.960027, 49.691475 ], [ 15.916987, 49.685669 ], [ 15.848704, 49.718632 ], [ 15.863730, 49.744530 ], [ 15.851144, 49.736630 ], [ 15.806388, 49.758896 ], [ 15.775086, 49.755714 ], [ 15.782640, 49.780427 ], [ 15.738320, 49.779407 ], [ 15.662234, 49.816757 ], [ 15.592541, 49.808709 ], [ 15.497158, 49.861226 ], [ 15.497722, 49.897952 ], [ 15.535517, 49.927458 ], [ 15.516099, 49.941163 ], [ 15.531592, 49.961736 ], [ 15.460935, 49.987283 ], [ 15.474089, 49.994179 ], [ 15.468724, 50.007169 ], [ 15.459401, 49.997506 ], [ 15.460188, 50.010325 ], [ 15.424704, 50.009583 ], [ 15.362878, 50.041142 ], [ 15.402661, 50.046595 ], [ 15.375339, 50.055797 ], [ 15.412375, 50.063100 ], [ 15.404345, 50.086103 ], [ 15.428067, 50.088102 ], [ 15.398870, 50.095382 ], [ 15.437698, 50.109873 ], [ 15.469506, 50.099632 ], [ 15.570072, 50.150444 ], [ 15.586469, 50.133397 ], [ 15.648522, 50.140515 ], [ 15.689779, 50.125754 ], [ 15.705521, 50.139289 ], [ 15.727024, 50.133842 ], [ 15.740471, 50.161145 ], [ 15.776287, 50.175704 ], [ 15.804395, 50.168086 ], [ 15.804736, 50.140283 ], [ 15.837359, 50.131935 ], [ 15.917121, 50.170733 ], [ 15.992293, 50.157413 ], [ 16.009685, 50.112753 ], [ 16.063480, 50.112826 ], [ 16.075143, 50.086566 ], [ 16.111813, 50.084645 ], [ 16.195229, 50.038923 ], [ 16.242346, 50.055693 ], [ 16.247772, 50.042654 ], [ 16.280694, 50.051483 ], [ 16.332658, 50.040208 ], [ 16.312356, 50.060884 ], [ 16.357470, 50.077590 ], [ 16.340556, 50.092053 ], [ 16.472305, 50.136914 ], [ 16.481199, 50.164597 ], [ 16.580151, 50.142444 ], [ 16.633675, 50.111363 ], [ 16.706095, 50.096606 ], [ 16.745110, 50.134745 ], [ 16.783417, 50.145619 ], [ 16.812308, 50.191033 ], [ 16.848703, 50.207662 ], [ 16.863806, 50.198147 ], [ 16.825839, 50.114690 ], [ 16.804770, 50.108993 ], [ 16.824489, 50.085573 ], [ 16.798185, 50.069083 ], [ 16.809948, 50.031372 ], [ 16.748724, 49.994614 ], [ 16.712035, 49.999687 ], [ 16.769092, 49.874327 ], [ 16.741724, 49.864074 ], [ 16.736462, 49.830207 ], [ 16.801297, 49.772723 ], [ 16.792028, 49.759057 ], [ 16.813104, 49.748556 ], [ 16.788798, 49.729113 ], [ 16.830995, 49.729533 ], [ 16.847555, 49.716070 ], [ 16.846135, 49.680872 ], [ 16.803827, 49.656518 ], [ 16.822002, 49.623291 ], [ 16.804102, 49.598837 ] ] ] } }
,
{ "type": "Feature", "properties": { "description": "CZ063 – Kraj Vysočina", "lesnatost_bo": 31.500000 }, "geometry": { "type": "Polygon", "coordinates": [ [ [ 15.586706, 48.947087 ], [ 15.580312, 48.965798 ], [ 15.523576, 48.976036 ], [ 15.528150, 48.995088 ], [ 15.487296, 48.997033 ], [ 15.533986, 49.025636 ], [ 15.553253, 49.077159 ], [ 15.597799, 49.076532 ], [ 15.590237, 49.104490 ], [ 15.549715, 49.114816 ], [ 15.570098, 49.116631 ], [ 15.567482, 49.128954 ], [ 15.536737, 49.135545 ], [ 15.535873, 49.124734 ], [ 15.468401, 49.119668 ], [ 15.441283, 49.133122 ], [ 15.423935, 49.117701 ], [ 15.337193, 49.166894 ], [ 15.341527, 49.218407 ], [ 15.253201, 49.206518 ], [ 15.257549, 49.217662 ], [ 15.191505, 49.236512 ], [ 15.166667, 49.216065 ], [ 15.139292, 49.221212 ], [ 15.123649, 49.247930 ], [ 15.099131, 49.240858 ], [ 15.075100, 49.251967 ], [ 15.100773, 49.249109 ], [ 15.103696, 49.270285 ], [ 15.062180, 49.272288 ], [ 15.029921, 49.296666 ], [ 14.978935, 49.277275 ], [ 14.924116, 49.310507 ], [ 14.904200, 49.333407 ], [ 14.932999, 49.356371 ], [ 14.888256, 49.375909 ], [ 14.933509, 49.484142 ], [ 14.901832, 49.516489 ], [ 14.943728, 49.524377 ], [ 14.931974, 49.549430 ], [ 14.940391, 49.580026 ], [ 14.993127, 49.581892 ], [ 14.969036, 49.596010 ], [ 14.981739, 49.606021 ], [ 15.055999, 49.594164 ], [ 15.117548, 49.610423 ], [ 15.164978, 49.589038 ], [ 15.171043, 49.614161 ], [ 15.230509, 49.615079 ], [ 15.249656, 49.643536 ], [ 15.234657, 49.665347 ], [ 15.184831, 49.667792 ], [ 15.177557, 49.696531 ], [ 15.217156, 49.725994 ], [ 15.224991, 49.757044 ], [ 15.254017, 49.763173 ], [ 15.265101, 49.751186 ], [ 15.299585, 49.768501 ], [ 15.346422, 49.769420 ], [ 15.382330, 49.799967 ], [ 15.425146, 49.792599 ], [ 15.439027, 49.804330 ], [ 15.416435, 49.827759 ], [ 15.497158, 49.861226 ], [ 15.592541, 49.808709 ], [ 15.662234, 49.816757 ], [ 15.738320, 49.779407 ], [ 15.782640, 49.780427 ], [ 15.775086, 49.755714 ], [ 15.806388, 49.758896 ], [ 15.851144, 49.736630 ], [ 15.863730, 49.744530 ], [ 15.848704, 49.718632 ], [ 15.916987, 49.685669 ], [ 15.960027, 49.691475 ], [ 15.953494, 49.702472 ], [ 16.009715, 49.738022 ], [ 16.016168, 49.719076 ], [ 16.075038, 49.711911 ], [ 16.102264, 49.683639 ], [ 16.139815, 49.691331 ], [ 16.241559, 49.660376 ], [ 16.287170, 49.619938 ], [ 16.348175, 49.613173 ], [ 16.392076, 49.580151 ], [ 16.372257, 49.552371 ], [ 16.418339, 49.525227 ], [ 16.384852, 49.492922 ], [ 16.355080, 49.502347 ], [ 16.389669, 49.476003 ], [ 16.378668, 49.451871 ], [ 16.351765, 49.448363 ], [ 16.350090, 49.470328 ], [ 16.314563, 49.465664 ], [ 16.291884, 49.446987 ], [ 16.329825, 49.448226 ], [ 16.329460, 49.431506 ], [ 16.269364, 49.429107 ], [ 16.259727, 49.405592 ], [ 16.228034, 49.393956 ], [ 16.219573, 49.351207 ], [ 16.273130, 49.332518 ], [ 16.239885, 49.326090 ], [ 16.294067, 49.312338 ], [ 16.255332, 49.283190 ], [ 16.288352, 49.257104 ], [ 16.254287, 49.253685 ], [ 16.234962, 49.225546 ], [ 16.275788, 49.184128 ], [ 16.232942, 49.174512 ], [ 16.233704, 49.136094 ], [ 16.203876, 49.138441 ], [ 16.253969, 49.104458 ], [ 16.220694, 49.097653 ], [ 16.210976, 49.071605 ], [ 16.136981, 49.067928 ], [ 16.146517, 49.047898 ], [ 16.117554, 49.036314 ], [ 16.085778, 49.030864 ], [ 16.033323, 49.047132 ], [ 15.997347, 49.027914 ], [ 15.961172, 49.057303 ], [ 15.931262, 49.051274 ], [ 15.917223, 49.028928 ], [ 15.884051, 49.039214 ], [ 15.875299, 49.008528 ], [ 15.818614, 49.010964 ], [ 15.792030, 48.984206 ], [ 15.758140, 48.980924 ], [ 15.730569, 48.947017 ], [ 15.704049, 48.967908 ], [ 15.660434, 48.964586 ], [ 15.645742, 48.937530 ], [ 15.611381, 48.959220 ], [ 15.586706, 48.947087 ] ] ] } }
,
{ "type": "Feature", "properties": { "description": "CZ064 – Jihomoravský", "lesnatost_bo": 29.740000 }, "geometry": { "type": "Polygon", "coordinates": [ [ [ 17.646925, 48.854267 ], [ 17.528472, 48.812167 ], [ 17.519051, 48.829307 ], [ 17.509794, 48.819608 ], [ 17.453183, 48.846752 ], [ 17.396844, 48.813334 ], [ 17.361311, 48.813527 ], [ 17.321658, 48.845309 ], [ 17.200170, 48.877582 ], [ 17.110847, 48.831209 ], [ 17.088648, 48.785531 ], [ 17.043275, 48.764276 ], [ 16.940177, 48.616561 ], [ 16.918791, 48.622381 ], [ 16.924803, 48.671966 ], [ 16.902187, 48.717904 ], [ 16.800325, 48.705925 ], [ 16.724734, 48.738057 ], [ 16.682578, 48.727815 ], [ 16.663737, 48.781036 ], [ 16.593579, 48.782697 ], [ 16.540723, 48.814318 ], [ 16.518630, 48.798276 ], [ 16.460408, 48.809058 ], [ 16.434993, 48.765661 ], [ 16.377990, 48.728503 ], [ 16.342811, 48.745655 ], [ 16.329878, 48.731281 ], [ 16.102881, 48.745438 ], [ 15.994361, 48.779379 ], [ 15.949627, 48.805295 ], [ 15.958380, 48.823105 ], [ 15.893239, 48.834681 ], [ 15.897654, 48.848402 ], [ 15.842745, 48.859653 ], [ 15.841547, 48.877171 ], [ 15.779536, 48.874931 ], [ 15.753664, 48.852223 ], [ 15.690606, 48.855595 ], [ 15.614211, 48.897704 ], [ 15.542431, 48.907789 ], [ 15.586706, 48.947087 ], [ 15.611381, 48.959220 ], [ 15.645742, 48.937530 ], [ 15.660434, 48.964586 ], [ 15.704049, 48.967908 ], [ 15.730569, 48.947017 ], [ 15.758140, 48.980924 ], [ 15.792030, 48.984206 ], [ 15.818614, 49.010964 ], [ 15.875299, 49.008528 ], [ 15.884051, 49.039214 ], [ 15.917223, 49.028928 ], [ 15.931262, 49.051274 ], [ 15.961172, 49.057303 ], [ 15.997347, 49.027914 ], [ 16.033323, 49.047132 ], [ 16.085778, 49.030864 ], [ 16.117554, 49.036314 ], [ 16.146517, 49.047898 ], [ 16.136981, 49.067928 ], [ 16.210976, 49.071605 ], [ 16.220694, 49.097653 ], [ 16.253969, 49.104458 ], [ 16.203876, 49.138441 ], [ 16.233704, 49.136094 ], [ 16.232942, 49.174512 ], [ 16.275788, 49.184128 ], [ 16.234962, 49.225546 ], [ 16.254287, 49.253685 ], [ 16.288352, 49.257104 ], [ 16.255332, 49.283190 ], [ 16.294067, 49.312338 ], [ 16.239885, 49.326090 ], [ 16.273130, 49.332518 ], [ 16.219573, 49.351207 ], [ 16.228034, 49.393956 ], [ 16.259727, 49.405592 ], [ 16.269364, 49.429107 ], [ 16.329460, 49.431506 ], [ 16.329825, 49.448226 ], [ 16.291884, 49.446987 ], [ 16.314563, 49.465664 ], [ 16.350090, 49.470328 ], [ 16.351765, 49.448363 ], [ 16.378668, 49.451871 ], [ 16.389669, 49.476003 ], [ 16.355080, 49.502347 ], [ 16.384852, 49.492922 ], [ 16.418339, 49.525227 ], [ 16.372257, 49.552371 ], [ 16.392076, 49.580151 ], [ 16.406407, 49.572211 ], [ 16.435772, 49.598748 ], [ 16.446129, 49.587309 ], [ 16.487286, 49.599996 ], [ 16.540754, 49.590148 ], [ 16.555474, 49.630860 ], [ 16.603647, 49.621346 ], [ 16.621863, 49.633277 ], [ 16.651074, 49.618740 ], [ 16.696566, 49.626385 ], [ 16.804102, 49.598837 ], [ 16.793036, 49.573772 ], [ 16.745401, 49.587367 ], [ 16.737034, 49.542425 ], [ 16.832980, 49.532324 ], [ 16.787954, 49.509677 ], [ 16.798151, 49.456134 ], [ 16.829183, 49.436358 ], [ 16.796279, 49.411466 ], [ 16.859714, 49.381305 ], [ 16.915748, 49.428982 ], [ 16.897597, 49.460369 ], [ 16.858464, 49.479727 ], [ 16.905918, 49.499065 ], [ 16.948162, 49.492727 ], [ 17.030832, 49.387671 ], [ 17.053680, 49.406663 ], [ 17.035288, 49.359426 ], [ 17.139047, 49.327004 ], [ 17.159906, 49.275150 ], [ 17.129807, 49.244892 ], [ 17.164999, 49.189998 ], [ 17.147205, 49.174833 ], [ 17.197505, 49.183489 ], [ 17.199078, 49.159990 ], [ 17.187582, 49.138061 ], [ 17.148622, 49.132847 ], [ 17.141566, 49.103519 ], [ 17.113181, 49.103405 ], [ 17.109701, 49.077391 ], [ 17.144907, 49.073192 ], [ 17.213630, 49.093026 ], [ 17.232119, 49.064229 ], [ 17.221981, 49.032989 ], [ 17.267447, 49.034409 ], [ 17.275245, 49.013766 ], [ 17.335742, 49.015658 ], [ 17.363038, 49.004806 ], [ 17.351793, 48.979175 ], [ 17.396594, 48.980508 ], [ 17.434300, 48.950407 ], [ 17.499005, 48.966429 ], [ 17.548060, 48.947678 ], [ 17.538157, 48.923185 ], [ 17.602075, 48.910248 ], [ 17.646925, 48.854267 ] ] ] } }
,
{ "type": "Feature", "properties": { "description": "CZ071 – Olomoucký", "lesnatost_bo": 36.500000 }, "geometry": { "type": "Polygon", "coordinates": [ [ [ 17.159906, 49.275150 ], [ 17.139047, 49.327004 ], [ 17.035288, 49.359426 ], [ 17.053680, 49.406663 ], [ 17.030832, 49.387671 ], [ 16.948162, 49.492727 ], [ 16.905918, 49.499065 ], [ 16.858464, 49.479727 ], [ 16.897597, 49.460369 ], [ 16.915748, 49.428982 ], [ 16.859714, 49.381305 ], [ 16.796279, 49.411466 ], [ 16.829183, 49.436358 ], [ 16.798151, 49.456134 ], [ 16.787954, 49.509677 ], [ 16.832980, 49.532324 ], [ 16.737034, 49.542425 ], [ 16.745401, 49.587367 ], [ 16.793036, 49.573772 ], [ 16.804102, 49.598837 ], [ 16.822002, 49.623291 ], [ 16.803827, 49.656518 ], [ 16.846135, 49.680872 ], [ 16.847555, 49.716070 ], [ 16.830995, 49.729533 ], [ 16.788798, 49.729113 ], [ 16.813104, 49.748556 ], [ 16.792028, 49.759057 ], [ 16.801297, 49.772723 ], [ 16.736462, 49.830207 ], [ 16.741724, 49.864074 ], [ 16.769092, 49.874327 ], [ 16.712035, 49.999687 ], [ 16.748724, 49.994614 ], [ 16.809948, 50.031372 ], [ 16.798185, 50.069083 ], [ 16.824489, 50.085573 ], [ 16.804770, 50.108993 ], [ 16.825839, 50.114690 ], [ 16.863806, 50.198147 ], [ 16.899129, 50.222868 ], [ 16.956469, 50.222704 ], [ 16.975997, 50.244833 ], [ 16.998616, 50.215897 ], [ 17.028389, 50.230005 ], [ 17.001629, 50.256411 ], [ 17.020124, 50.278277 ], [ 17.002718, 50.302133 ], [ 16.946221, 50.315405 ], [ 16.911057, 50.389053 ], [ 16.860412, 50.407768 ], [ 16.881260, 50.442458 ], [ 16.907990, 50.449466 ], [ 16.974100, 50.417771 ], [ 16.998380, 50.427765 ], [ 17.052620, 50.406974 ], [ 17.110835, 50.404974 ], [ 17.143415, 50.380432 ], [ 17.203350, 50.386369 ], [ 17.201226, 50.364026 ], [ 17.247961, 50.331840 ], [ 17.290007, 50.317509 ], [ 17.348743, 50.328357 ], [ 17.349457, 50.264121 ], [ 17.389131, 50.282754 ], [ 17.420748, 50.277428 ], [ 17.429766, 50.254181 ], [ 17.421530, 50.210115 ], [ 17.377091, 50.222928 ], [ 17.348442, 50.189874 ], [ 17.308661, 50.186485 ], [ 17.239471, 50.142040 ], [ 17.249387, 50.121000 ], [ 17.220372, 50.102225 ], [ 17.234426, 50.063636 ], [ 17.155077, 49.983038 ], [ 17.203405, 49.949573 ], [ 17.162210, 49.921409 ], [ 17.175147, 49.910737 ], [ 17.147135, 49.877957 ], [ 17.185223, 49.844433 ], [ 17.225147, 49.859412 ], [ 17.215802, 49.818263 ], [ 17.265718, 49.818166 ], [ 17.265162, 49.835076 ], [ 17.355686, 49.863461 ], [ 17.381121, 49.848272 ], [ 17.356390, 49.812807 ], [ 17.387296, 49.790920 ], [ 17.410364, 49.826809 ], [ 17.462763, 49.832431 ], [ 17.440990, 49.866979 ], [ 17.475019, 49.873988 ], [ 17.483565, 49.825442 ], [ 17.505867, 49.816455 ], [ 17.494114, 49.798677 ], [ 17.524983, 49.790444 ], [ 17.527748, 49.770574 ], [ 17.614226, 49.744912 ], [ 17.683469, 49.762870 ], [ 17.689529, 49.676911 ], [ 17.724589, 49.662584 ], [ 17.746923, 49.675457 ], [ 17.777673, 49.633133 ], [ 17.863831, 49.581552 ], [ 17.843591, 49.564963 ], [ 17.853298, 49.550840 ], [ 17.902463, 49.566388 ], [ 17.916797, 49.538161 ], [ 17.900441, 49.511183 ], [ 17.842864, 49.523812 ], [ 17.838909, 49.504047 ], [ 17.786757, 49.488378 ], [ 17.800418, 49.470463 ], [ 17.774350, 49.437317 ], [ 17.720205, 49.437666 ], [ 17.692121, 49.463211 ], [ 17.664413, 49.439220 ], [ 17.624702, 49.449668 ], [ 17.650364, 49.415045 ], [ 17.631930, 49.400801 ], [ 17.504261, 49.401318 ], [ 17.514994, 49.383405 ], [ 17.473742, 49.354681 ], [ 17.449919, 49.380060 ], [ 17.374756, 49.380091 ], [ 17.385595, 49.405159 ], [ 17.355176, 49.408661 ], [ 17.332693, 49.382092 ], [ 17.356730, 49.342568 ], [ 17.315327, 49.331535 ], [ 17.286345, 49.298323 ], [ 17.194108, 49.297342 ], [ 17.176708, 49.267573 ], [ 17.159906, 49.275150 ] ] ] } }
,
{ "type": "Feature", "properties": { "description": "CZ072 – Zlínský", "lesnatost_bo": 45.120000 }, "geometry": { "type": "Polygon", "coordinates": [ [ [ 18.403675, 49.396674 ], [ 18.415579, 49.367532 ], [ 18.378928, 49.330530 ], [ 18.191747, 49.289927 ], [ 18.147198, 49.248412 ], [ 18.136715, 49.161011 ], [ 18.106749, 49.134179 ], [ 18.115546, 49.090073 ], [ 18.076971, 49.042039 ], [ 18.024468, 49.021225 ], [ 17.924311, 49.019958 ], [ 17.885302, 48.927675 ], [ 17.781310, 48.925276 ], [ 17.703326, 48.860025 ], [ 17.646925, 48.854267 ], [ 17.602075, 48.910248 ], [ 17.538157, 48.923185 ], [ 17.548060, 48.947678 ], [ 17.499005, 48.966429 ], [ 17.434300, 48.950407 ], [ 17.396594, 48.980508 ], [ 17.351793, 48.979175 ], [ 17.363038, 49.004806 ], [ 17.335742, 49.015658 ], [ 17.275245, 49.013766 ], [ 17.267447, 49.034409 ], [ 17.221981, 49.032989 ], [ 17.232119, 49.064229 ], [ 17.213630, 49.093026 ], [ 17.144907, 49.073192 ], [ 17.109701, 49.077391 ], [ 17.113181, 49.103405 ], [ 17.141566, 49.103519 ], [ 17.148622, 49.132847 ], [ 17.187582, 49.138061 ], [ 17.199078, 49.159990 ], [ 17.197505, 49.183489 ], [ 17.147205, 49.174833 ], [ 17.164999, 49.189998 ], [ 17.129807, 49.244892 ], [ 17.159906, 49.275150 ], [ 17.176708, 49.267573 ], [ 17.194108, 49.297342 ], [ 17.286345, 49.298323 ], [ 17.315327, 49.331535 ], [ 17.356730, 49.342568 ], [ 17.332693, 49.382092 ], [ 17.355176, 49.408661 ], [ 17.385595, 49.405159 ], [ 17.374756, 49.380091 ], [ 17.449919, 49.380060 ], [ 17.473742, 49.354681 ], [ 17.514994, 49.383405 ], [ 17.504261, 49.401318 ], [ 17.631930, 49.400801 ], [ 17.650364, 49.415045 ], [ 17.624702, 49.449668 ], [ 17.664413, 49.439220 ], [ 17.692121, 49.463211 ], [ 17.720205, 49.437666 ], [ 17.774350, 49.437317 ], [ 17.800418, 49.470463 ], [ 17.786757, 49.488378 ], [ 17.838909, 49.504047 ], [ 17.842864, 49.523812 ], [ 17.900441, 49.511183 ], [ 17.916797, 49.538161 ], [ 17.973343, 49.538001 ], [ 17.998008, 49.503454 ], [ 18.125978, 49.520511 ], [ 18.136122, 49.509377 ], [ 18.163647, 49.517060 ], [ 18.203310, 49.489008 ], [ 18.301226, 49.489860 ], [ 18.321168, 49.451764 ], [ 18.366269, 49.433065 ], [ 18.366141, 49.405660 ], [ 18.403675, 49.396674 ] ] ] } }
,
{ "type": "Feature", "properties": { "description": "CZ080 – Moravskoslezský", "lesnatost_bo": 38.650000 }, "geometry": { "type": "Polygon", "coordinates": [ [ [ 18.403675, 49.396674 ], [ 18.366141, 49.405660 ], [ 18.366269, 49.433065 ], [ 18.321168, 49.451764 ], [ 18.301226, 49.489860 ], [ 18.203310, 49.489008 ], [ 18.163647, 49.517060 ], [ 18.136122, 49.509377 ], [ 18.125978, 49.520511 ], [ 17.998008, 49.503454 ], [ 17.973343, 49.538001 ], [ 17.916797, 49.538161 ], [ 17.902463, 49.566388 ], [ 17.853298, 49.550840 ], [ 17.843591, 49.564963 ], [ 17.863831, 49.581552 ], [ 17.777673, 49.633133 ], [ 17.746923, 49.675457 ], [ 17.724589, 49.662584 ], [ 17.689529, 49.676911 ], [ 17.683469, 49.762870 ], [ 17.614226, 49.744912 ], [ 17.527748, 49.770574 ], [ 17.524983, 49.790444 ], [ 17.494114, 49.798677 ], [ 17.505867, 49.816455 ], [ 17.483565, 49.825442 ], [ 17.475019, 49.873988 ], [ 17.440990, 49.866979 ], [ 17.462763, 49.832431 ], [ 17.410364, 49.826809 ], [ 17.387296, 49.790920 ], [ 17.356390, 49.812807 ], [ 17.381121, 49.848272 ], [ 17.355686, 49.863461 ], [ 17.265162, 49.835076 ], [ 17.265718, 49.818166 ], [ 17.215802, 49.818263 ], [ 17.225147, 49.859412 ], [ 17.185223, 49.844433 ], [ 17.147135, 49.877957 ], [ 17.175147, 49.910737 ], [ 17.162210, 49.921409 ], [ 17.203405, 49.949573 ], [ 17.155077, 49.983038 ], [ 17.234426, 50.063636 ], [ 17.220372, 50.102225 ], [ 17.249387, 50.121000 ], [ 17.239471, 50.142040 ], [ 17.308661, 50.186485 ], [ 17.348442, 50.189874 ], [ 17.377091, 50.222928 ], [ 17.421530, 50.210115 ], [ 17.429766, 50.254181 ], [ 17.495667, 50.275092 ], [ 17.591960, 50.278954 ], [ 17.617362, 50.266948 ], [ 17.686075, 50.299053 ], [ 17.687003, 50.327975 ], [ 17.750878, 50.300609 ], [ 17.725027, 50.256748 ], [ 17.765048, 50.236388 ], [ 17.758532, 50.206569 ], [ 17.717438, 50.205696 ], [ 17.704729, 50.184902 ], [ 17.592755, 50.159977 ], [ 17.650409, 50.110806 ], [ 17.676725, 50.103023 ], [ 17.696905, 50.116991 ], [ 17.718358, 50.106068 ], [ 17.759028, 50.067646 ], [ 17.771825, 50.025225 ], [ 17.827749, 50.011299 ], [ 17.826429, 49.994003 ], [ 17.868554, 49.972483 ], [ 17.922905, 49.978744 ], [ 18.004694, 50.018351 ], [ 18.045521, 50.005115 ], [ 18.044441, 50.036595 ], [ 18.004133, 50.038984 ], [ 18.033667, 50.066009 ], [ 18.089421, 50.044106 ], [ 18.117031, 49.994140 ], [ 18.153893, 49.982355 ], [ 18.173188, 50.000275 ], [ 18.206628, 49.997920 ], [ 18.214341, 49.971990 ], [ 18.276362, 49.964618 ], [ 18.279260, 49.940046 ], [ 18.317997, 49.915658 ], [ 18.350074, 49.929578 ], [ 18.333011, 49.949366 ], [ 18.430803, 49.938138 ], [ 18.491515, 49.903230 ], [ 18.534419, 49.899579 ], [ 18.539430, 49.925659 ], [ 18.573761, 49.921134 ], [ 18.565716, 49.880643 ], [ 18.605773, 49.861572 ], [ 18.568965, 49.829174 ], [ 18.629249, 49.747065 ], [ 18.625251, 49.722355 ], [ 18.668257, 49.703408 ], [ 18.709589, 49.704463 ], [ 18.741004, 49.676514 ], [ 18.805672, 49.677935 ], [ 18.837232, 49.563028 ], [ 18.859274, 49.550553 ], [ 18.837253, 49.523603 ], [ 18.851619, 49.518267 ], [ 18.808165, 49.515229 ], [ 18.754500, 49.488354 ], [ 18.677844, 49.507601 ], [ 18.617766, 49.495037 ], [ 18.597273, 49.510213 ], [ 18.564870, 49.506784 ], [ 18.534600, 49.490071 ], [ 18.547968, 49.467840 ], [ 18.475706, 49.408527 ], [ 18.449970, 49.393484 ], [ 18.403675, 49.396674 ] ] ] } }
,
{ "type": "Feature", "properties": { "description": "CZ010 – Hlavní město Praha", "lesnatost_bo": 10.930000 }, "geometry": { "type": "Polygon", "coordinates": [ [ [ 14.224517, 50.102993 ], [ 14.302515, 50.130155 ], [ 14.320681, 50.115320 ], [ 14.360858, 50.116096 ], [ 14.365780, 50.148109 ], [ 14.394977, 50.141505 ], [ 14.526992, 50.177496 ], [ 14.563306, 50.150242 ], [ 14.598672, 50.154226 ], [ 14.600591, 50.129594 ], [ 14.659189, 50.122674 ], [ 14.657508, 50.106571 ], [ 14.706858, 50.087088 ], [ 14.700062, 50.072198 ], [ 14.640262, 50.056965 ], [ 14.669605, 50.018911 ], [ 14.640218, 49.994512 ], [ 14.582461, 50.016436 ], [ 14.527540, 50.010912 ], [ 14.462306, 49.970846 ], [ 14.400713, 49.970746 ], [ 14.395626, 49.941977 ], [ 14.325504, 49.957287 ], [ 14.342821, 49.990707 ], [ 14.294905, 50.002289 ], [ 14.315940, 50.023674 ], [ 14.248156, 50.058389 ], [ 14.289446, 50.077216 ], [ 14.249912, 50.103549 ], [ 14.224517, 50.102993 ] ] ] } }

]
}]
